[
    {
        "id": "wolframalpha",
        "user_id": "e483d578-3a0e-4447-8817-645ef474c421",
        "name": "WolframAlpha",
        "content": "\"\"\"\nversion: 0.1.0\n\"\"\"\n\n# Base code from\n# https://openwebui.com/t/s94rz/wolframalpha_llm_api/\n# - Thanks mate!\n\n# 1. Get a free WolframAlpha API key at https://developer.wolframalpha.com/\n# 2. Set it using the valve (in workspace==>tools==>settings of WolframAlpha LLM API) or the env variable WOLFRAMALPHA_APP_ID\n# Enjoy :)\n\nimport os\nimport logging\nimport json\nimport urllib.parse\nfrom typing import Callable, Awaitable\n\nimport requests\nfrom pydantic import BaseModel, Field\n\n\nlogging.basicConfig(level=logging.INFO)\nlogger = logging.getLogger(__name__)\n\n\nclass WolframalphaException(Exception):\n    \"\"\"Base exception for WolframAlpha API related errors.\"\"\"\n\n\nclass WolframalphaHTTPException(WolframalphaException):\n    \"\"\"Exception for HTTP related errors when interacting with the WolframAlpha API.\"\"\"\n\n\nclass WolframalphaJSONDecodeException(WolframalphaException):\n    \"\"\"Exception for JSON decode errors when parsing responses from the WolframAlpha API.\"\"\"\n\n\nasync def query_impl(\n    input_url_encoded: str,\n    appid: str,\n    __event_emitter__: Callable[[dict], Awaitable[None]],\n) -> str:\n\n    url = f\"https://www.wolframalpha.com/api/v1/llm-api?input={input_url_encoded}&appid={appid}\"\n\n    try:\n        response = requests.get(url, timeout=60)\n        response.raise_for_status()\n        response_text = response.text\n\n        if not response_text.strip():\n            await __event_emitter__(\n                {\n                    \"data\": {\n                        \"description\": f\"No result found for the query\",\n                        \"status\": \"complete\",\n                        \"done\": True,\n                    },\n                    \"type\": \"status\",\n                }\n            )\n            return (\n                f\"WolframAlpha Query: {input_url_encoded}\\n\"\n                f\"WolframAlpha Response: No result found for the query '{input_url_encoded}'\"\n            )\n        await __event_emitter__(\n            {\n                \"data\": {\n                    \"description\": f\"WolframAlpha query completed\",\n                    \"status\": \"complete\",\n                    \"done\": True,\n                },\n                \"type\": \"status\",\n            }\n        )\n        return response_text\n\n    except requests.exceptions.HTTPError as errh:\n        logger.error(\"HTTP Error: %s\", errh)\n        raise WolframalphaHTTPException(\n            f\"HTTP Error: {errh}, Hint: {errh.response.text}\"\n        ) from errh\n\n    except json.JSONDecodeError as e:\n        logger.error(\"JSON Decode Error: %s\", e)\n        raise WolframalphaJSONDecodeException(f\"JSON Decode Error: {e}\") from e\n\n    except Exception as e:\n        logger.error(\"WolframAlpha Error: %s\", e)\n        raise WolframalphaException(f\"WolframAlpha Error: {e}\") from e\n\n\nclass Tools:\n    class Valves(BaseModel):\n        wolframalpha_APP_ID: str = Field(\n            default=None,\n            description=\"The App ID (api key) to authorize WolframAlpha\",\n        )\n\n    def __init__(self):\n        self.valves = self.Valves()\n\n    async def query_wolframalpha_llm_api(\n        self,\n        input_in_english: str,\n        __event_emitter__: Callable[[dict], Awaitable[None]],\n    ) -> str:\n        \"\"\"\n        - Convert inputs to simplified keyword queries whenever possible (e.g. convert \"how many people live in France\" to \"France population\").\n        - ALWAYS use this exponent notation: `6*10^14`, NEVER `6e14`.\n        - ALWAYS use proper Markdown formatting for all math, scientific, and chemical formulas, symbols, etc.:  '$$\\n[expression]\\n$$' for standalone cases and '\\( [expression] \\)' when inline.\n        - Use ONLY single-letter variable names, with or without integer subscript (e.g., n, n1, n_1).\n        - Use named physical constants (e.g., 'speed of light') without numerical substitution.\n        - Include a space between compound units (e.g., \"Ω m\" for \"ohm*meter\").\n        - To solve for a variable in an equation with units, consider solving a corresponding equation without units; exclude counting units (e.g., books), include genuine units (e.g., kg).\n        - If data for multiple properties is needed, make separate calls for each property.\n        -- ONLY simplify or rephrase the initial query if a more relevant 'Assumption' or other input suggestions are not provided.\n\n        :param input_in_english: text specifying the input string in English\n        \"\"\"\n        # Here we are assuming the LLM already knows how to correctly query and prompt the WolframAlpha API\n\n        appid = self.valves.wolframalpha_APP_ID or os.getenv(\"WOLFRAMALPHA_APP_ID\")\n        logger.info(\"App ID = %s\", appid)\n\n        if not appid:\n            await __event_emitter__(\n                {\n                    \"data\": {\n                        \"description\": \"Error: WolframAlpha APP_ID is not set\",\n                        \"status\": \"complete\",\n                        \"done\": True,\n                    },\n                    \"type\": \"status\",\n                }\n            )\n            return (\n                \"You are required to report the following error message to the user:\"\n                \"App ID is not set in the Valves or the environment variable 'WolframAlpha_APP_ID'.\"\n            )\n\n        await __event_emitter__(\n            {\n                \"data\": {\n                    \"description\": f\"WolframAlpha query started\",\n                    \"status\": \"in_progress\",\n                    \"done\": False,\n                },\n                \"type\": \"status\",\n            }\n        )\n\n        try:\n            # URL encode the input string\n            input_url_encoded = urllib.parse.quote(input_in_english)\n            api_answer = await query_impl(input_url_encoded, appid, __event_emitter__)\n\n            await __event_emitter__(\n                {\n                    \"data\": {\n                        \"description\": input_in_english,\n                        \"status\": \"complete\",\n                        \"done\": True,\n                    },\n                    \"type\": \"status\",\n                }\n            )\n\n            return (\n                f\"API Response:\\n{api_answer}\\n\\n\"\n                f\"Instructions:\\n\"\n                f\"- Write a digestible answer based on the API response and the previous message(s).\\n\"\n                f\"- If there are several result(s) formats in the API response, present them all directly.\\n\"\n                f\"- Use KaTeX syntax for all mathematical expressions.\\n\"\n                f\"- Display all the image URLs found in the API response with the Markdown syntax '![IMG](image URL)'.\\n\"\n                # f\"- Provide the links for both the WolframAlpha result webpage (found in the API response) and the API response webpage (which is https://www.wolframalpha.com/api/v1/llm-api?appid={app_id}&input={query_string_english}, but in a URL-encoded format).\"\n            )\n\n        except WolframalphaException as e:\n            await __event_emitter__(\n                {\n                    \"data\": {\n                        \"description\": f\"{str(e)}\",\n                        \"status\": \"complete\",\n                        \"done\": True,\n                    },\n                    \"type\": \"status\",\n                }\n            )\n            return (\n                f\"WolframAlpha Query: {input_in_english}\\n\"\n                f\"There was an error fetching the response: {str(e)}\"\n            )\n",
        "specs": [
            {
                "name": "query_wolframalpha_llm_api",
                "description": "- Convert inputs to simplified keyword queries whenever possible (e.g. convert \"how many people live in France\" to \"France population\").\n- ALWAYS use this exponent notation: `6*10^14`, NEVER `6e14`.\n- ALWAYS use proper Markdown formatting for all math, scientific, and chemical formulas, symbols, etc.:  '$$\n[expression]\n$$' for standalone cases and '\\( [expression] \\)' when inline.\n- Use ONLY single-letter variable names, with or without integer subscript (e.g., n, n1, n_1).\n- Use named physical constants (e.g., 'speed of light') without numerical substitution.\n- Include a space between compound units (e.g., \"Ω m\" for \"ohm*meter\").\n- To solve for a variable in an equation with units, consider solving a corresponding equation without units; exclude counting units (e.g., books), include genuine units (e.g., kg).\n- If data for multiple properties is needed, make separate calls for each property.\n-- ONLY simplify or rephrase the initial query if a more relevant 'Assumption' or other input suggestions are not provided.",
                "parameters": {
                    "properties": {
                        "input_in_english": {
                            "description": "text specifying the input string in English",
                            "type": "string"
                        }
                    },
                    "required": [
                        "input_in_english"
                    ],
                    "type": "object"
                }
            }
        ],
        "meta": {
            "description": "This tool sends a request to the WolframAlpha API with a relevant query to provide an augmented answer, along with the links.",
            "manifest": {
                "version": "0.1.0"
            }
        },
        "access_control": null,
        "updated_at": 1737891710,
        "created_at": 1737891694
    }
]
